Case Study 1: Exploratory Data Analysis (EDA) for Budweiser
…
# Remove missing data for beer & rename the Name and Brewery_id Columns
clean_df <- all_df %>% filter(!is.na(ABV) & !is.na(IBU) & !is.na(Style))
dim(clean_df)

## [1] 1403   10

4. Compute the median alcohol content and international bitterness unit for each state. Plot a bar chart to compare.

# Dataframe with median values for ABV and IBU
(med_abv_ibu <- clean_df %>% 
  group_by(State) %>%
  summarize(med_abv = median(ABV), med_ibu = median(IBU), count = n()))

## # A tibble: 50 x 4
##    State med_abv med_ibu count
##    <fct>   <dbl>   <dbl> <int>
##  1 AK      0.057    46      17
##  2 AL      0.06     43       9
##  3 AR      0.04     39       1
##  4 AZ      0.055    20      23
##  5 CA      0.058    42     135
##  6 CO      0.065    40     146
##  7 CT      0.061    29       6
##  8 DC      0.059    47.5     4
##  9 DE      0.055    52       1
## 10 FL      0.062    55      37
## # ... with 40 more rows
…
